{
  "_fv": 33,
  "_type": "tag",
  "definition": {
    "type": "Items",
    "items": [
      {
        "value": "CUSTOM:CetioWood"
      },
      {
        "value": "CUSTOM:CetioLog"
      }
    ],
    "blocks": [],
    "functions": [],
    "entities": [],
    "name": "cetio_log",
    "namespace": "forge"
  }
}