{
  "_fv": 33,
  "_type": "procedure",
  "definition": {
    "procedurexml": "<xml xmlns=\"https://developers.google.com/blockly/xml\"><block type=\"event_trigger\" deletable=\"false\" x=\"40\" y=\"40\"><field name=\"trigger\">no_ext_trigger</field><next><block type=\"world_send_chat\"><value name=\"text\"><block type=\"text\"><field name=\"TEXT\">Je...</field></block></value><next><block type=\"world_send_chat\"><value name=\"text\"><block type=\"text\"><field name=\"TEXT\">Je me meurt...</field></block></value><next><block type=\"world_send_chat\"><value name=\"text\"><block type=\"text_join\"><mutation items=\"2\"></mutation><value name=\"ADD0\"><block type=\"text_join\"><mutation items=\"2\"></mutation><value name=\"ADD0\"><block type=\"text\"><field name=\"TEXT\">Cet humain... </field></block></value><value name=\"ADD1\"><block type=\"entity_name\"><value name=\"entity\"><block type=\"world_entity_inrange\"><field name=\"entity\">EntityPlayer</field><value name=\"x\"><block type=\"coord_x\"></block></value><value name=\"y\"><block type=\"coord_y\"></block></value><value name=\"z\"><block type=\"coord_z\"></block></value><value name=\"range\"><block type=\"math_number\"><field name=\"NUM\">4</field></block></value></block></value></block></value></block></value><value name=\"ADD1\"><block type=\"text\"><field name=\"TEXT\">... Il m'a tué...</field></block></value></block></value></block></next></block></next></block></next></block></xml>"
  }
}