{
  "_fv": 33,
  "_type": "recipe",
  "definition": {
    "recipeType": "Smithing",
    "xpReward": 0.0,
    "cookingTime": 200,
    "recipeRetstackSize": 1,
    "group": "",
    "recipeShapeless": false,
    "smithingInputStack": {
      "value": "Items.DIAMOND_PICKAXE"
    },
    "smithingInputAdditionStack": {
      "value": "CUSTOM:Superdiamant"
    },
    "smithingReturnStack": {
      "value": "CUSTOM:Superpickaxe1"
    },
    "name": "recsuperpickaxe",
    "namespace": "mod"
  }
}