{
  "_fv": 33,
  "_type": "tool",
  "definition": {
    "renderType": 0,
    "texture": "text_superpickaxe_lvl4",
    "customModelName": "Normal",
    "name": "Superpickaxe lvl4",
    "specialInfo": [],
    "creativeTab": {
      "value": "No creative tab entry"
    },
    "toolType": "Pickaxe",
    "harvestLevel": 4,
    "efficiency": 7.0,
    "attackSpeed": 1.0,
    "enchantability": 2,
    "damageVsEntity": 4.0,
    "usageCount": 0,
    "blocksAffected": [],
    "hasGlow": false,
    "repairItems": [],
    "immuneToFire": true,
    "stayInGridWhenCrafting": false,
    "damageOnCrafting": false,
    "onItemInUseTick": {
      "name": "Superpickaxe4LorsqueLoutilEstDansLaMain"
    },
    "onBlockDestroyedWithTool": {
      "name": "Superpickaxe4to5"
    }
  }
}