{
  "type": "minecraft:crafting_shapeless",
  "ingredients": [
    {
      "item": "superpickaxemod:cetio_planks"
    }
  ],
  "result": {
    "item": "superpickaxemod:cetio_button",
    "count": 1
  }
}