{
  "type": "minecraft:crafting_shapeless",
  "ingredients": [
    {
      "item": "minecraft:stone_pickaxe"
    },
    {
      "item": "minecraft:book"
    }
  ],
  "result": {
    "item": "superpickaxemod:livredeconnaisances",
    "count": 1
  }
}