{
  "type": "minecraft:crafting_shapeless",
  "ingredients": [
    {
      "item": "superpickaxemod:mineraisdeyellorite"
    },
    {
      "item": "superpickaxemod:mineraisdeyellorite"
    },
    {
      "item": "superpickaxemod:mineraisdeyellorite"
    },
    {
      "item": "superpickaxemod:mineraisdeyellorite"
    }
  ],
  "result": {
    "item": "superpickaxemod:blocdeyellorite",
    "count": 1
  }
}