{
  "type": "minecraft:smithing",
  "base": {
    "item": "minecraft:diamond_pickaxe"
  },
  "addition": {
    "item": "superpickaxemod:superdiamant"
  },
  "result": {
    "item": "superpickaxemod:superpickaxe_1"
  }
}