{
  "parent": "block/cube",
  "textures": {
    "down": "superpickaxemod:blocks/text_portal_creator_under",
    "up": "superpickaxemod:blocks/text_portal_creator_top",
    "north": "superpickaxemod:blocks/text_portal_creator_front",
    "east": "superpickaxemod:blocks/text_portal_creator_side",
    "south": "superpickaxemod:blocks/text_portal_creator_side",
    "west": "superpickaxemod:blocks/text_portal_creator_side",
    "particle": "superpickaxemod:blocks/text_portal_creator_under"
  }
}